<?xml version="1.0" encoding="UTF-8"?>
<svg width="16px" height="16px" viewBox="0 0 16 16" version="1.1" xmlns="http://www.w3.org/2000/svg" xmlns:xlink="http://www.w3.org/1999/xlink">
    <!-- Generator: Sketch 43.1 (39012) - http://www.bohemiancoding.com/sketch -->
    <title>edit-pressed</title>
    <desc>Created with Sketch.</desc>
    <defs></defs>
    <g id="Symbols" stroke="none" stroke-width="1" fill="none" fill-rule="evenodd">
        <g id="edit-pressed" fill="#FFFFFF">
            <path d="M12.717,5.3345 L11.57,6.4815 L9.863,4.7745 L11.009,3.6275 C11.179,3.4575 11.454,3.4575 11.624,3.6265 L12.717,4.7205 C12.887,4.8895 12.887,5.1655 12.717,5.3345 L12.717,5.3345 Z M6.592,11.4595 L4.884,9.7525 L9.363,5.2735 L11.071,6.9805 L6.592,11.4595 Z M4.257,12.4885 C4.013,12.5535 3.791,12.3315 3.856,12.0875 L4.334,10.3035 L6.041,12.0105 L4.257,12.4885 Z M14,0.2655 L2,0.2655 C1.035,0.2655 0.25,1.0505 0.25,2.0155 L0.25,13.9845 C0.25,14.9495 1.035,15.7345 2,15.7345 L14,15.7345 C14.965,15.7345 15.75,14.9495 15.75,13.9845 L15.75,2.0155 C15.75,1.0505 14.965,0.2655 14,0.2655 L14,0.2655 Z" id="Fill-1"></path>
        </g>
    </g>
</svg>