<?xml version="1.0" encoding="UTF-8"?>
<svg width="16px" height="16px" viewBox="0 0 16 16" version="1.1" xmlns="http://www.w3.org/2000/svg" xmlns:xlink="http://www.w3.org/1999/xlink">
    <!-- Generator: Sketch 43.1 (39012) - http://www.bohemiancoding.com/sketch -->
    <title>filevault-pressed</title>
    <desc>Created with Sketch.</desc>
    <defs></defs>
    <g id="Symbols" stroke="none" stroke-width="1" fill="none" fill-rule="evenodd">
        <g id="filevault-pressed" fill="#FFFFFF">
            <g id="Group-2" transform="translate(0.000000, 0.500000)">
                <polygon id="Fill-1" points="1.25 5.17220052 14.25 5.17220052 14.25 2.04541016 1.25 2.04541016"></polygon>
                <polygon id="Fill-2" points="2.107 1.2541 13.394 1.2541 13.394 0.0001 2.107 0.0001"></polygon>
                <path d="M5.25,12.1671 L10.25,12.1671 L10.25,10.6671 L5.25,10.6671 L5.25,12.1671 Z M9.917,6.3331 L9.917,8.0001 L5.583,8.0001 L5.583,6.3331 L0,6.3331 L0,13.0531 C0,14.0181 0.785,14.8031 1.75,14.8031 L13.75,14.8031 C14.715,14.8031 15.5,14.0181 15.5,13.0531 L15.5,6.3331 L9.917,6.3331 Z" id="Fill-3"></path>
            </g>
        </g>
    </g>
</svg>