<?xml version="1.0" encoding="UTF-8"?>
<svg width="18px" height="19px" viewBox="0 0 18 19" version="1.1" xmlns="http://www.w3.org/2000/svg" xmlns:xlink="http://www.w3.org/1999/xlink">
    <!-- Generator: Sketch 43.1 (39012) - http://www.bohemiancoding.com/sketch -->
    <title>Clip 5</title>
    <desc>Created with Sketch.</desc>
    <defs></defs>
    <g id="Expense-Report" stroke="none" stroke-width="1" fill="none" fill-rule="evenodd">
        <g id="Expense-Report---Home" transform="translate(-1242.000000, -97.000000)" fill="#616684">
            <g id="tabing" transform="translate(225.000000, 93.719868)">
                <g id="more" transform="translate(1024.000000, 5.000000)">
                    <rect id="Rectangle-5" x="0" y="0" width="3.4" height="3.4"></rect>
                    <rect id="Rectangle-5" x="0" y="6.8" width="3.4" height="3.4"></rect>
                    <rect id="Rectangle-5" x="0" y="13.6" width="3.4" height="3.4"></rect>
                </g>
            </g>
        </g>
    </g>
</svg>