<?xml version="1.0" encoding="UTF-8"?>
<svg width="16px" height="16px" viewBox="0 0 16 16" version="1.1" xmlns="http://www.w3.org/2000/svg" xmlns:xlink="http://www.w3.org/1999/xlink">
    <!-- Generator: Sketch 43.1 (39012) - http://www.bohemiancoding.com/sketch -->
    <title>payroll</title>
    <desc>Created with Sketch.</desc>
    <defs></defs>
    <g id="Symbols" stroke="none" stroke-width="1" fill="none" fill-rule="evenodd">
        <g id="payroll" fill="#92A3C2">
            <g id="Page-1" transform="translate(0.000000, 0.500000)">
                <path d="M14.6251,1.5524 C14.6251,0.6964 13.9281,0.0004 13.0731,0.0004 L2.4271,0.0004 C1.5711,0.0004 0.8751,0.6964 0.8751,1.5524 L0.8751,3.4874 L14.6251,3.4874 L14.6251,1.5524 Z" id="Fill-1"></path>
                <path d="M8.0401,12.6652 L8.0401,13.5682 L7.4671,13.5682 L7.4671,12.6652 C6.4461,12.5632 5.7941,11.9032 5.7941,11.0082 L6.9491,11.0082 C6.9641,11.3542 7.2391,11.6602 7.7571,11.6602 C8.2201,11.6602 8.5421,11.4402 8.5501,11.0872 C8.5581,10.8442 8.4481,10.6312 7.8981,10.4752 L7.2471,10.2942 C6.0541,9.9252 5.8501,9.2262 5.8501,8.7402 C5.8501,7.8522 6.5481,7.2322 7.4671,7.1382 L7.4671,6.2982 L8.0401,6.2982 L8.0401,7.1462 C8.9121,7.2642 9.5401,7.8602 9.5401,8.7792 L8.3941,8.7792 C8.3941,8.4172 8.1501,8.1662 7.6951,8.1662 C7.2941,8.1662 6.9961,8.3862 6.9961,8.7082 C6.9961,8.8502 7.0511,9.1082 7.5771,9.2582 L8.2201,9.4622 C9.5321,9.8392 9.7201,10.5772 9.7051,11.0952 C9.6891,12.0682 8.8961,12.5792 8.0401,12.6652 L8.0401,12.6652 Z M0.0001,4.9422 L0.0001,13.1742 C0.0001,14.1392 0.7851,14.9242 1.7501,14.9242 L13.7501,14.9242 C14.7151,14.9242 15.5001,14.1392 15.5001,13.1742 L15.5001,4.9422 L0.0001,4.9422 Z" id="Fill-3"></path>
            </g>
        </g>
    </g>
</svg>