<?xml version="1.0" encoding="UTF-8"?>
<svg width="16px" height="16px" viewBox="0 0 16 16" version="1.1" xmlns="http://www.w3.org/2000/svg" xmlns:xlink="http://www.w3.org/1999/xlink">
    <!-- Generator: Sketch 43.1 (39012) - http://www.bohemiancoding.com/sketch -->
    <title>preview-pressed</title>
    <desc>Created with Sketch.</desc>
    <defs></defs>
    <g id="Symbols" stroke="none" stroke-width="1" fill="none" fill-rule="evenodd">
        <g id="preview-pressed" fill="#FFFFFF">
            <path d="M8.646,7.358 L7.238,7.358 L7.238,8.766 L5.738,8.766 L5.738,7.358 L4.329,7.358 L4.329,5.858 L5.738,5.858 L5.738,4.45 L7.238,4.45 L7.238,5.858 L8.646,5.858 L8.646,7.358 Z M11.521,10.461 C12.383,9.365 12.855,8.024 12.855,6.608 C12.855,4.939 12.205,3.37 11.025,2.19 C9.845,1.01 8.276,0.36 6.607,0.36 C4.938,0.36 3.369,1.01 2.188,2.19 C-0.248,4.626 -0.248,8.59 2.188,11.026 C3.369,12.206 4.938,12.856 6.607,12.856 C8.023,12.856 9.365,12.384 10.46,11.522 L14.578,15.64 L15.639,14.58 L11.521,10.461 Z" id="Fill-1"></path>
        </g>
    </g>
</svg>