<?xml version="1.0" encoding="UTF-8"?>
<svg width="16px" height="16px" viewBox="0 0 16 16" version="1.1" xmlns="http://www.w3.org/2000/svg" xmlns:xlink="http://www.w3.org/1999/xlink">
    <!-- Generator: Sketch 43.1 (39012) - http://www.bohemiancoding.com/sketch -->
    <title>recall-pressed</title>
    <desc>Created with Sketch.</desc>
    <defs></defs>
    <g id="Symbols" stroke="none" stroke-width="1" fill="none" fill-rule="evenodd">
        <g id="recall-pressed" fill="#FFFFFF">
            <path d="M12.683,10.375 C12.317,11.098 11.8,11.713 11.147,12.203 C10.205,12.908 9.101,13.248 8.007,13.248 C6.408,13.248 4.828,12.522 3.798,11.146 L4.999,10.247 C6.238,11.902 8.592,12.241 10.248,11.002 C10.715,10.652 11.084,10.213 11.345,9.697 C11.995,8.415 11.863,6.903 11.002,5.753 C10.402,4.951 9.525,4.431 8.534,4.289 C7.542,4.149 6.555,4.398 5.753,4.999 C5.527,5.168 5.326,5.368 5.144,5.583 L6.438,5.757 L3.694,9.307 L1.991,5.155 L3.473,5.356 C3.825,4.754 4.292,4.219 4.854,3.798 C5.977,2.958 7.359,2.605 8.747,2.804 C10.136,3.003 11.363,3.731 12.203,4.854 C13.409,6.464 13.593,8.58 12.683,10.375 M14,0.265 L2,0.265 C1.036,0.265 0.25,1.05 0.25,2.015 L0.25,13.985 C0.25,14.95 1.036,15.735 2,15.735 L14,15.735 C14.965,15.735 15.75,14.95 15.75,13.985 L15.75,2.015 C15.75,1.05 14.965,0.265 14,0.265" id="Fill-1"></path>
        </g>
    </g>
</svg>