<?xml version="1.0" encoding="UTF-8"?>
<svg width="16px" height="16px" viewBox="0 0 16 16" version="1.1" xmlns="http://www.w3.org/2000/svg" xmlns:xlink="http://www.w3.org/1999/xlink">
    <!-- Generator: Sketch 43.1 (39012) - http://www.bohemiancoding.com/sketch -->
    <title>report-pressed</title>
    <desc>Created with Sketch.</desc>
    <defs></defs>
    <g id="Symbols" stroke="none" stroke-width="1" fill="none" fill-rule="evenodd">
        <g id="report-pressed" fill="#FFFFFF">
            <g id="Group-2">
                <path d="M0,3.4233 C0,2.4583 0.785,1.6733 1.75,1.6733 L1.873,1.6733 L1.873,15.2573 L1.75,15.2573 C0.785,15.2573 0,14.4723 0,13.5073 L0,3.4233 Z" id="Fill-1"></path>
                <path d="M6.716,6.4108 L11.716,6.4108 L11.716,4.9108 L6.716,4.9108 L6.716,6.4108 Z M6.716,9.0398 L11.716,9.0398 L11.716,7.5398 L6.716,7.5398 L6.716,9.0398 Z M6.716,11.6688 L11.716,11.6688 L11.716,10.1688 L6.716,10.1688 L6.716,11.6688 Z M11.656,-0.0002 L4.682,-0.0002 C3.717,-0.0002 2.932,0.7848 2.932,1.7498 L2.932,13.5078 C2.932,14.4728 3.717,15.2578 4.682,15.2578 L13.749,15.2578 C14.714,15.2578 15.499,14.4728 15.499,13.5078 L15.499,4.0738 L11.656,-0.0002 Z" id="Fill-3"></path>
            </g>
        </g>
    </g>
</svg>