<?xml version="1.0" encoding="UTF-8"?>
<svg width="16px" height="16px" viewBox="0 0 16 16" version="1.1" xmlns="http://www.w3.org/2000/svg" xmlns:xlink="http://www.w3.org/1999/xlink">
    <!-- Generator: Sketch 43.1 (39012) - http://www.bohemiancoding.com/sketch -->
    <title>users-pressed</title>
    <desc>Created with Sketch.</desc>
    <defs></defs>
    <g id="Symbols" stroke="none" stroke-width="1" fill="none" fill-rule="evenodd">
        <g id="users-pressed" fill="#FFFFFF">
            <path d="M4.97295229,3.12043041 C4.84224007,3.52669812 4.75274341,3.95298482 4.75274341,4.40282327 C4.75274341,5.84419045 5.48167011,7.11598502 6.58978001,7.87435141 C4.94940053,7.92381008 3.6269697,9.26508232 3.6269697,10.9172377 L3.6269697,15.8042261 L0,15.8042261 L0,12.0771614 C0,10.6887857 1.11164266,9.56183439 2.48942011,9.52061882 C1.55912594,8.88354395 0.946780402,7.81429444 0.946780402,6.60491201 C0.946780402,4.65600459 2.53181326,3.07097173 4.48072068,3.07097173 C4.64911571,3.07097173 4.8104452,3.09805624 4.97295229,3.12043041 Z M14.8742263,4.40305878 C14.8742263,5.84324838 14.144122,7.11504295 13.0371897,7.87458692 C14.6775692,7.9240456 16,9.26531784 16,10.9174732 L16,15.8044616 L5.33341184,15.8044616 L5.33341184,10.9174732 C5.33341184,9.26531784 6.65584267,7.9240456 8.29622215,7.87458692 C7.18928984,7.11504295 6.45918555,5.84324838 6.45918555,4.40305878 C6.45918555,2.08321128 8.34685842,0.195538415 10.6667059,0.195538415 C12.9865534,0.195538415 14.8742263,2.08321128 14.8742263,4.40305878 Z" id="Combined-Shape"></path>
        </g>
    </g>
</svg>